
R Under development (unstable) (2020-11-20 r79451) -- "Unsuffered Consequences"
Copyright (C) 2020 The R Foundation for Statistical Computing
Platform: x86_64-pc-linux-gnu (64-bit)

R is free software and comes with ABSOLUTELY NO WARRANTY.
You are welcome to redistribute it under certain conditions.
Type 'license()' or 'licence()' for distribution details.

  Natural language support but running in an English locale

R is a collaborative project with many contributors.
Type 'contributors()' for more information and
'citation()' on how to cite R or R packages in publications.

Type 'demo()' for some demos, 'help()' for on-line help, or
'help.start()' for an HTML browser interface to help.
Type 'q()' to quit R.

> roxygen2::roxygenize(".")
Loading rBDATPRO
Writing NAMESPACE
Writing NAMESPACE
Writing BDAT20.Rd
Writing BDATBIOMASSE.Rd
Writing BDATDMRHX.Rd
Writing BDATDORHX.Rd
Writing BDATRINDE2HX.Rd
Writing BDATVOLABMR.Rd
Writing BDATVOLABOR.Rd
Writing BDATVOLDHMR.Rd
Writing BDATVOLDHOR.Rd
Writing buildTree.Rd
Writing getAssortment.Rd
Writing getBark.Rd
Writing getBiomass.Rd
Writing getDiameter.Rd
Writing getForm.Rd
Writing getHeight.Rd
Writing getSpeciesCode.Rd
Writing getVolume.Rd
Writing plot.datBDAT.Rd
Writing rBDATPRO-package.Rd
Writing transformBDAT20.Rd
> 
> 
